Country,Year, Male.Consumption, Female.Consumption
Albania,2025,48.3,5.8
Albania,2020,49.5,6.6
Albania,2015,51.2,7.6
Albania,2012,52.1,8.2
Albania,2010,53.1,8.7
Albania,2009,,
Albania,2005,54.7,10.1
Albania,2004,,
Albania,2003,,
Albania,2000,56.9,11.6
Algeria,2013,,
Andorra,2025,34.3,26.1
Andorra,2020,35.6,26.8
Andorra,2015,37.2,27.8
Andorra,2012,38.5,28.4
Andorra,2010,39.2,28.8
Andorra,2005,41.3,30.2
Andorra,2000,43.6,31.6
Antigua and Barbuda,2009,,
Antigua and Barbuda,2004,,
Antigua and Barbuda,2000,,
Argentina,2025,23,12.4
Argentina,2020,26,15
Argentina,2015,29.5,18.4
Argentina,2012,31.8,20.8
Argentina,2010,33.4,22.4
Argentina,2007,,
Argentina,2005,38.2,27.7
Argentina,2000,43.7,34
Armenia,2025,44.6,1.1
Armenia,2020,48.4,1.3
Armenia,2015,52.3,1.5
Armenia,2012,54.8,1.7
Armenia,2010,56.7,1.8
Armenia,2009,,
Armenia,2005,61.5,2.2
Armenia,2004,,
Armenia,2000,67.1,2.6
Australia,2025,12.3,9.2
Australia,2020,14.3,11
Australia,2015,16.7,13.1
Australia,2012,18.4,14.7
Australia,2010,19.6,15.8
Australia,2005,23,19.1
Australia,2000,27.1,22.8
Austria,2025,30,31.9
Austria,2020,32.7,33.3
Austria,2015,35.5,34.8
Austria,2012,37.4,35.9
Austria,2010,38.8,36.7
Austria,2005,42.3,38.4
Austria,2000,46.4,40.5
Azerbaijan,2025,40.6,0.3
Azerbaijan,2020,43.3,0.4
Azerbaijan,2015,46.5,0.4
Azerbaijan,2012,48.6,0.4
Azerbaijan,2011,,
Azerbaijan,2010,49.9,0.5
Azerbaijan,2005,54.1,0.5
Azerbaijan,2000,58.6,0.6
Bahamas,2013,,
Bahamas,2009,,
Bahamas,2004,,
Bahamas,2000,,
Bahrain,2025,86.1,10.8
Bahrain,2020,67.5,9
Bahrain,2015,48.8,7.6
Bahrain,2012,40.1,6.9
Bahrain,2010,34.8,6.5
Bahrain,2005,25,5.6
Bahrain,2003,,
Bahrain,2001,,
Bahrain,2000,18.2,4.8
Bangladesh,2025,29.5,0.2
Bangladesh,2020,34.3,0.3
Bangladesh,2015,39.8,0.7
Bangladesh,2013,,
Bangladesh,2012,43.7,1.1
Bangladesh,2010,46.6,1.4
Bangladesh,2007,,
Bangladesh,2005,54.2,3
Bangladesh,2000,63.7,6.3
Barbados,2025,13.2,0.7
Barbados,2020,13,0.8
Barbados,2015,13.1,0.9
Barbados,2012,13.2,1.1
Barbados,2010,13.2,1.2
Barbados,2007,,
Barbados,2005,13.5,1.4
Barbados,2002,,
Barbados,2000,13.8,1.8
Barbados,1999,,
Belarus,2025,37.6,9.2
Belarus,2020,41.7,9.8
Belarus,2015,46.2,10.6
Belarus,2012,49.4,11
Belarus,2010,51.3,11.4
Belarus,2005,57.6,12.3
Belarus,2004,,
Belarus,2000,64.1,13.4
Belgium,2025,22.2,17.8
Belgium,2020,24.2,18.9
Belgium,2015,26.5,20
Belgium,2012,28,20.9
Belgium,2010,29.1,21.3
Belgium,2005,32.1,22.7
Belgium,2000,35.6,24.3
Belize,2008,,
Belize,2002,,
Benin,2025,23.1,0.7
Benin,2020,20.2,0.8
Benin,2015,17.7,1
Benin,2012,16.4,1.1
Benin,2010,15.6,1.1
Benin,2005,13.8,1.3
Benin,2000,12.4,1.6
Bhutan,2013,,
Bhutan,2009,,
Bhutan,2006,,
Bhutan,2004,,
Bolivia (Plurinational State of),2025,22.4,13.2
Bolivia (Plurinational State of),2020,26,15
Bolivia (Plurinational State of),2015,30.5,17.1
Bolivia (Plurinational State of),2012,33.6,18.6
Bolivia (Plurinational State of),2010,35.8,19.7
Bolivia (Plurinational State of),2005,42.8,22.8
Bolivia (Plurinational State of),2000,50.9,26.4
Bosnia and Herzegovina,2025,42.2,27.3
Bosnia and Herzegovina,2020,44.4,28.6
Bosnia and Herzegovina,2015,47.2,30
Bosnia and Herzegovina,2012,49,31.2
Bosnia and Herzegovina,2010,50,31.7
Bosnia and Herzegovina,2008,,
Bosnia and Herzegovina,2005,53.8,33.6
Bosnia and Herzegovina,2003,,
Bosnia and Herzegovina,2000,57.7,35.9
Botswana,2008,,
Botswana,2002,,
Brazil,2025,14.9,8.4
Brazil,2020,16.9,9.7
Brazil,2015,19.3,11.3
Brazil,2012,21,12.4
Brazil,2010,22.2,13.3
Brazil,2005,25.4,15.6
Brazil,2000,29.4,18.5
Brunei Darussalam,2025,30.3,2.4
Brunei Darussalam,2020,29.8,2.7
Brunei Darussalam,2015,29.3,3.1
Brunei Darussalam,2013,,
Brunei Darussalam,2012,29.2,3.4
Brunei Darussalam,2010,29.1,3.6
Brunei Darussalam,2005,29.2,4.3
Brunei Darussalam,2000,29.5,5.1
Bulgaria,2025,34.7,22.1
Bulgaria,2020,38.4,24.9
Bulgaria,2015,42.4,28.2
Bulgaria,2012,45.2,30.4
Bulgaria,2010,47.1,32
Bulgaria,2008,,
Bulgaria,2005,52.7,36.4
Bulgaria,2002,,
Bulgaria,2000,58.8,42
Burkina Faso,2025,48.9,3
Burkina Faso,2020,41.8,3.6
Burkina Faso,2015,36,4.5
Burkina Faso,2012,33.1,5.1
Burkina Faso,2010,31.1,5.5
Burkina Faso,2005,27,6.9
Burkina Faso,2000,23.6,8.6
Burundi,2008,,
Côte d'Ivoire,2009,,
Cabo Verde,2025,30.7,2.6
Cabo Verde,2020,26,3
Cabo Verde,2015,22.2,3.5
Cabo Verde,2012,20.2,3.9
Cabo Verde,2010,19.1,4.1
Cabo Verde,2007,,
Cabo Verde,2005,16.5,4.9
Cabo Verde,2000,14.4,5.9
Cambodia,2025,41.1,1.4
Cambodia,2020,42.5,2
Cambodia,2015,44.1,2.8
Cambodia,2012,45.2,3.5
Cambodia,2010,46,4
Cambodia,2005,48.4,5.7
Cambodia,2003,,
Cambodia,2000,51.2,8.1
Cameroon,2025,87.2,0.9
Cameroon,2020,65.9,0.9
Cameroon,2015,43.8,0.9
Cameroon,2012,33.7,0.9
Cameroon,2010,28.5,0.9
Cameroon,2005,18.7,0.9
Cameroon,2000,12.3,0.9
Canada,2025,12.6,7.3
Canada,2020,14.8,9.4
Canada,2015,17.7,12.2
Canada,2012,19.5,14.2
Canada,2010,20.9,15.8
Canada,2005,24.8,20.4
Canada,2000,29.4,26.5
Chad,2008,,
Chile,2025,35.2,32.1
Chile,2020,37.6,34.1
Chile,2015,40,36
Chile,2012,41.7,37.4
Chile,2010,42.8,38.3
Chile,2005,46.2,40.8
Chile,2000,49.9,43.6
China,2025,43.8,1.1
China,2020,45.7,1.4
China,2015,47.6,1.8
China,2014,,
China,2012,49,2
China,2010,50.1,2.2
China,2005,52.9,2.8
China,2000,55.8,3.5
Colombia,2025,12.4,4.4
Colombia,2020,14,5.2
Colombia,2015,16,6.2
Colombia,2012,17.2,6.9
Colombia,2010,18.3,7.4
Colombia,2005,21.1,8.8
Colombia,2000,24.5,10.6
Comoros,2025,19.7,3.5
Comoros,2020,21.2,4.6
Comoros,2015,23.1,6
Comoros,2012,24.4,7.1
Comoros,2010,25.2,7.9
Comoros,2007,,
Comoros,2005,27.7,10.5
Comoros,2000,30.6,14
Congo,2025,92.9,1.9
Congo,2020,69.6,1.8
Congo,2015,43.2,1.7
Congo,2012,32.1,1.7
Congo,2010,26.4,1.7
Congo,2009,,
Congo,2006,,
Congo,2005,16.2,1.6
Congo,2000,10.1,1.6
Cook Islands,2008,,
Cook Islands,2003,,
Costa Rica,2025,14.8,6.3
Costa Rica,2020,16.5,7.2
Costa Rica,2015,18.5,8.3
Costa Rica,2012,19.8,9.2
Costa Rica,2010,20.9,9.8
Costa Rica,2008,,
Costa Rica,2005,23.7,11.7
Costa Rica,2002,,
Costa Rica,2000,27.5,14.1
Croatia,2025,39.3,38.5
Croatia,2020,39.3,36.1
Croatia,2015,39.4,33.5
Croatia,2012,39.4,32.3
Croatia,2011,,
Croatia,2010,39.4,31.6
Croatia,2007,,
Croatia,2005,39.8,29.6
Croatia,2003,,
Croatia,2000,40.3,28
Cuba,2025,52.1,12.9
Cuba,2020,52.6,15.1
Cuba,2015,52.7,17.8
Cuba,2012,53.2,19.8
Cuba,2010,53.2,21.3
Cuba,2005,54,25.6
Cuba,2000,54.7,31.1
Cyprus,2011,,
Cyprus,2005,,
Czechia,2025,35.7,28.8
Czechia,2020,36.5,28.9
Czechia,2015,37.4,29
Czechia,2012,38,28.9
Czechia,2011,,
Czechia,2010,38.5,29.2
Czechia,2007,,
Czechia,2005,39.5,29.4
Czechia,2002,,
Czechia,2000,40.7,29.7
Denmark,2025,10.2,10.1
Denmark,2020,13.4,12.9
Denmark,2015,17.6,16.4
Denmark,2012,21,19
Denmark,2010,23.4,20.9
Denmark,2005,31.1,27
Denmark,2000,41.6,34.6
Djibouti,2013,,
Djibouti,2009,,
Djibouti,2003,,
Dominica,2009,,
Dominica,2004,,
Dominican Republic,2025,17.6,7.1
Dominican Republic,2020,18.1,8.2
Dominican Republic,2015,18.8,9.4
Dominican Republic,2012,19.1,10.3
Dominican Republic,2011,,
Dominican Republic,2010,19.5,10.9
Dominican Republic,2005,20.4,12.9
Dominican Republic,2004,,
Dominican Republic,2000,21.7,15.2
Ecuador,2025,11,2.5
Ecuador,2020,12.3,2.8
Ecuador,2015,14,3.3
Ecuador,2012,15.1,3.6
Ecuador,2010,15.9,3.8
Ecuador,2005,18.4,4.5
Ecuador,2000,21.4,5.3
Egypt,2025,63.1,0.1
Egypt,2020,56.3,0.2
Egypt,2015,49.9,0.3
Egypt,2012,45.9,0.4
Egypt,2010,43.9,0.5
Egypt,2009,,
Egypt,2005,39.3,0.8
Egypt,2000,35.5,1.2
El Salvador,2009,,
El Salvador,2003,,
Equatorial Guinea,2008,,
Eritrea,2006,,
Estonia,2025,34.2,23.7
Estonia,2020,37.5,24.3
Estonia,2015,41.2,24.9
Estonia,2012,43.6,25.4
Estonia,2010,45.2,25.6
Estonia,2007,,
Estonia,2005,49.9,26.5
Estonia,2003,,
Estonia,2000,55.3,27.4
Ethiopia,2025,9.1,0.4
Ethiopia,2020,9,0.5
Ethiopia,2015,8.9,0.5
Ethiopia,2012,8.9,0.5
Ethiopia,2010,9,0.5
Ethiopia,2005,9.1,0.6
Ethiopia,2000,9,0.6
Fiji,2025,33.3,11.4
Fiji,2020,35.8,11.9
Fiji,2015,38.7,12.4
Fiji,2012,40.6,12.8
Fiji,2010,42.3,13.1
Fiji,2009,,
Fiji,2005,46.4,14.1
Fiji,2000,52,15.2
Finland,2025,18.3,15
Finland,2020,20.6,16.7
Finland,2015,23.2,18.5
Finland,2012,25,19.6
Finland,2010,26.3,20.6
Finland,2005,29.9,22.8
Finland,2000,33.8,25.7
France,2025,25.7,24.4
France,2020,27.7,24.9
France,2015,29.8,25.6
France,2012,31.1,25.8
France,2010,32.1,26.2
France,2005,34.8,26.8
France,2000,37.7,27.8
Georgia,2025,54.8,5.3
Georgia,2020,56,5.5
Georgia,2015,57.7,5.7
Georgia,2014,,
Georgia,2012,58.6,5.8
Georgia,2010,59.6,6
Georgia,2008,,
Georgia,2005,61.4,6.2
Georgia,2003,,
Georgia,2000,63.4,6.5
Germany,2025,29.1,27
Germany,2020,30.7,27.7
Germany,2015,32.4,28.3
Germany,2012,33.6,28.7
Germany,2010,34.3,29
Germany,2005,36.1,29.6
Germany,2000,38.4,30.4
Ghana,2025,17,0.3
Ghana,2020,14.9,0.4
Ghana,2015,13.1,0.4
Ghana,2012,12.1,0.5
Ghana,2010,11.6,0.5
Ghana,2009,,
Ghana,2006,,
Ghana,2005,10.3,0.6
Ghana,2000,9.2,0.8
Greece,2025,47.7,28.3
Greece,2020,49.7,30.2
Greece,2015,52.6,32.7
Greece,2013,,
Greece,2012,54.3,34.2
Greece,2010,55.6,35.2
Greece,2005,59.3,38.6
Greece,2000,63,42.4
Grenada,2009,,
Grenada,2004,,
Guatemala,2008,,
Guinea,2008,,
Guyana,2010,,
Guyana,2004,,
Haiti,2025,25.8,2
Haiti,2020,23.7,2.2
Haiti,2015,22.1,2.5
Haiti,2012,21.2,2.7
Haiti,2010,20.7,2.9
Haiti,2005,19.4,3.3
Haiti,2000,18.4,3.8
Honduras,2025,23.8,1.4
Honduras,2020,27.8,1.7
Honduras,2015,33.3,2.1
Honduras,2012,37.2,2.4
Honduras,2010,40.3,2.7
Honduras,2005,49.2,3.3
Honduras,2000,60.2,4.2
Hungary,2025,25.3,20.2
Hungary,2020,28.3,22.4
Hungary,2015,32,24.8
Hungary,2013,,
Hungary,2012,34.5,26.5
Hungary,2010,35.9,27.5
Hungary,2008,,
Hungary,2005,40.6,30.8
Hungary,2003,,
Hungary,2000,46.1,34.4
Iceland,2025,11.3,10.6
Iceland,2020,13.7,12.6
Iceland,2015,17,15.1
Iceland,2012,19.3,16.9
Iceland,2010,21.1,18.1
Iceland,2005,26.5,22.1
Iceland,2000,33.5,27.1
India,2025,14.7,0.8
India,2020,17.2,1.2
India,2015,20.4,1.9
India,2012,22.8,2.4
India,2010,24.4,2.9
India,2009,,
India,2006,,
India,2005,29.5,4.6
India,2003,,
India,2000,35.9,7.3
Indonesia,2025,87.2,2.6
Indonesia,2020,82.7,3
Indonesia,2015,76.2,3.6
Indonesia,2014,,
Indonesia,2012,71.8,4
Indonesia,2010,68.4,4.2
Indonesia,2005,62,5
Indonesia,2000,56.2,6
Iran (Islamic Republic of),2025,17.7,0.2
Iran (Islamic Republic of),2020,19.4,0.4
Iran (Islamic Republic of),2015,21.5,0.7
Iran (Islamic Republic of),2012,22.9,1.1
Iran (Islamic Republic of),2010,23.8,1.5
Iran (Islamic Republic of),2007,,
Iran (Islamic Republic of),2005,26.8,2.9
Iran (Islamic Republic of),2003,,
Iran (Islamic Republic of),2000,30.2,5.8
Iraq,2012,,
Ireland,2025,17.8,18
Ireland,2020,20,19.8
Ireland,2015,22.4,21.9
Ireland,2012,24.2,23.5
Ireland,2010,25.5,24.4
Ireland,2005,28.9,27.3
Ireland,2000,33.1,30.5
Israel,2025,41.1,17.9
Israel,2020,41,18.7
Israel,2015,41.2,19.3
Israel,2012,41.7,20.1
Israel,2010,41.8,20.4
Israel,2005,42.5,21.6
Israel,2000,43.6,22.8
Italy,2025,25.8,19.6
Italy,2020,26.9,19.6
Italy,2015,28.3,19.7
Italy,2014,,
Italy,2012,29.1,19.8
Italy,2010,29.7,19.8
Italy,2005,31.2,20.1
Italy,2000,32.9,20.2
Jamaica,2025,31.7,4.6
Jamaica,2020,30.7,5.2
Jamaica,2015,29.9,5.9
Jamaica,2012,29.5,6.4
Jamaica,2010,29.3,6.7
Jamaica,2006,,
Jamaica,2005,28.9,7.8
Jamaica,2000,29,8.9
Japan,2025,25.5,8.7
Japan,2020,29.2,9.6
Japan,2015,33.7,10.6
Japan,2012,36.3,11.3
Japan,2010,38.4,11.7
Japan,2005,44.4,13
Japan,2000,51.3,14.4
Jordan,2025,86.5,13.8
Jordan,2020,80.4,12.1
Jordan,2015,70.2,10.7
Jordan,2012,63.6,10
Jordan,2010,58.9,9.5
Jordan,2009,,
Jordan,2007,,
Jordan,2005,49.6,8.5
Jordan,2003,,
Jordan,2000,42,7.7
Kazakhstan,2025,37.2,8.2
Kazakhstan,2020,40.3,8.7
Kazakhstan,2015,43.9,9.3
Kazakhstan,2012,46.3,9.7
Kazakhstan,2010,47.8,9.9
Kazakhstan,2009,,
Kazakhstan,2005,52.2,10.6
Kazakhstan,2004,,
Kazakhstan,2000,57.4,11.5
Kenya,2025,21.4,1.7
Kenya,2020,22.9,1.9
Kenya,2015,24.6,2.1
Kenya,2013,,
Kenya,2012,25.7,2.3
Kenya,2010,26.3,2.4
Kenya,2007,,
Kenya,2005,28.5,2.7
Kenya,2001,,
Kenya,2000,31,3
Kiribati,2025,54.9,36.8
Kiribati,2020,59.1,38.8
Kiribati,2015,63.9,40.9
Kiribati,2012,67.3,42.6
Kiribati,2010,69.3,43.7
Kiribati,2009,,
Kiribati,2005,75.9,47.1
Kiribati,2000,82,51.1
Kuwait,2009,,
Kuwait,2005,,
Kyrgyzstan,2025,50.4,3
Kyrgyzstan,2020,50.3,3.3
Kyrgyzstan,2015,50.4,3.6
Kyrgyzstan,2014,,
Kyrgyzstan,2012,50.2,3.8
Kyrgyzstan,2010,50.4,3.9
Kyrgyzstan,2008,,
Kyrgyzstan,2005,50.3,4.4
Kyrgyzstan,2004,,
Kyrgyzstan,2000,51.1,4.8
Lao People's Democratic Republic,2025,48,5.4
Lao People's Democratic Republic,2020,51.9,7
Lao People's Democratic Republic,2015,56.6,9.1
Lao People's Democratic Republic,2012,59.8,10.7
Lao People's Democratic Republic,2011,,
Lao People's Democratic Republic,2010,61.7,11.9
Lao People's Democratic Republic,2005,67.6,15.7
Lao People's Democratic Republic,2003,,
Lao People's Democratic Republic,2000,74.2,20.7
Latvia,2025,44.4,24.1
Latvia,2020,46.5,24.2
Latvia,2015,48.9,24.3
Latvia,2012,50.5,24.4
Latvia,2011,,
Latvia,2010,51.6,24.4
Latvia,2007,,
Latvia,2005,53.9,24.6
Latvia,2002,,
Latvia,2000,57.1,25
Lebanon,2025,55.4,37.7
Lebanon,2020,50.2,34.1
Lebanon,2015,45.4,31
Lebanon,2012,43,29.4
Lebanon,2011,,
Lebanon,2010,41.7,28.3
Lebanon,2005,38.3,26.2
Lebanon,2000,35.4,24.3
Lesotho,2025,73.6,0.4
Lesotho,2020,64.3,0.4
Lesotho,2015,55.1,0.4
Lesotho,2012,50.1,0.4
Lesotho,2010,47.2,0.5
Lesotho,2008,,
Lesotho,2005,40.7,0.5
Lesotho,2002,,
Lesotho,2000,35.2,0.6
Liberia,2025,37.2,1.7
Liberia,2020,32,2
Liberia,2015,27.6,2.4
Liberia,2012,25.4,2.7
Liberia,2010,23.9,2.8
Liberia,2005,21,3.4
Liberia,2000,18.4,4.1
Libya,2010,,
Libya,2007,,
Libya,2003,,
Lithuania,2025,31,23.6
Lithuania,2020,34.2,22.9
Lithuania,2015,38.1,22.2
Lithuania,2012,40.5,21.9
Lithuania,2010,42.3,21.8
Lithuania,2009,,
Lithuania,2005,47.3,21.3
Lithuania,2000,53.1,20.9
Luxembourg,2025,21.8,19.4
Luxembourg,2020,23.8,20.4
Luxembourg,2015,25.8,21.4
Luxembourg,2012,27.4,22.3
Luxembourg,2010,28.4,22.7
Luxembourg,2005,31.1,24.1
Luxembourg,2000,34.3,25.8
Madagascar,2008,,
Malawi,2025,21.8,4.5
Malawi,2020,23.5,5.2
Malawi,2015,25.4,6
Malawi,2012,26.6,6.6
Malawi,2010,27.6,7
Malawi,2009,,
Malawi,2005,30,8.2
Malawi,2000,32.8,9.7
Malaysia,2025,37.8,0.8
Malaysia,2020,40.2,1.1
Malaysia,2015,43,1.4
Malaysia,2012,44.9,1.6
Malaysia,2010,46.2,1.8
Malaysia,2009,,
Malaysia,2005,50,2.4
Malaysia,2003,,
Malaysia,2000,54.8,3.2
Maldives,2011,,
Maldives,2007,,
Maldives,2004,,
Mali,2025,55,2.8
Mali,2020,45.1,3
Mali,2015,36.8,3.2
Mali,2012,32.6,3.4
Mali,2010,30.3,3.5
Mali,2008,,
Mali,2005,24.9,3.7
Mali,2000,20.6,4.1
Malta,2025,25.9,17
Malta,2020,27.7,18.6
Malta,2015,29.7,20.2
Malta,2012,31.5,21.5
Malta,2010,32.5,22
Malta,2005,35.4,24.3
Malta,2000,38.8,26.9
Marshall Islands,2009,,
Mauritania,2025,64.9,2.8
Mauritania,2020,54.3,3.2
Mauritania,2015,44,3.7
Mauritania,2012,38.9,4
Mauritania,2010,35.8,4.2
Mauritania,2009,,
Mauritania,2006,,
Mauritania,2005,29.2,4.9
Mauritania,2001,,
Mauritania,2000,23.9,5.7
Mauritius,2025,37.2,2.6
Mauritius,2020,38.6,2.9
Mauritius,2015,40.1,3.3
Mauritius,2012,41.3,3.5
Mauritius,2010,42,3.7
Mauritius,2008,,
Mauritius,2005,44.1,4.2
Mauritius,2003,,
Mauritius,2000,46.6,4.8
Mexico,2025,14.5,4.3
Mexico,2020,17.3,5.3
Mexico,2015,20.8,6.6
Mexico,2012,23.3,7.6
Mexico,2011,,
Mexico,2010,25.1,8.4
Mexico,2005,30.2,10.5
Mexico,2000,36.6,13.3
Micronesia (Federated States of),2013,,
Micronesia (Federated States of),2007,,
Mongolia,2025,43.5,3.8
Mongolia,2020,45.4,4.5
Mongolia,2015,47.7,5.3
Mongolia,2014,,
Mongolia,2012,49.3,5.8
Mongolia,2010,50.3,6.3
Mongolia,2007,,
Mongolia,2005,53.6,7.5
Mongolia,2003,,
Mongolia,2000,56.9,9
Montenegro,2008,,
Montenegro,2003,,
Morocco,2025,57,0.7
Morocco,2020,51.3,1
Morocco,2015,45.4,1.4
Morocco,2012,42.5,1.7
Morocco,2010,40.6,1.9
Morocco,2006,,
Morocco,2005,36.4,2.8
Morocco,2001,,
Morocco,2000,33.1,4
Mozambique,2025,26.4,5.2
Mozambique,2020,28.8,5.5
Mozambique,2015,31.4,5.9
Mozambique,2012,33.4,6.2
Mozambique,2010,34.8,6.4
Mozambique,2005,38.5,6.9
Mozambique,2000,42.7,7.6
Myanmar,2025,22,3.8
Myanmar,2020,26.2,4.9
Myanmar,2015,31.6,6.4
Myanmar,2012,35.2,7.7
Myanmar,2011,,
Myanmar,2010,38.3,8.6
Myanmar,2007,,
Myanmar,2005,46.4,11.6
Myanmar,2004,,
Myanmar,2000,56.6,15.8
Namibia,2025,47.4,9.8
Namibia,2020,42.9,10.5
Namibia,2015,38.9,11.4
Namibia,2012,36.4,12
Namibia,2010,35.1,12.3
Namibia,2008,,
Namibia,2005,31.9,13.4
Namibia,2004,,
Namibia,2000,29.3,14.7
Nauru,2025,36.9,46.8
Nauru,2020,39.5,49.2
Nauru,2015,43,52
Nauru,2012,45.4,53.7
Nauru,2010,46.9,55.5
Nauru,2005,51.6,59.3
Nauru,2000,57,63.9
Nepal,2025,32.9,5.3
Nepal,2020,34.7,7.7
Nepal,2015,37.1,11.1
Nepal,2012,38.7,13.9
Nepal,2011,,
Nepal,2010,39.7,16.1
Nepal,2007,,
Nepal,2005,42.5,23.5
Nepal,2000,45.6,34.3
Netherlands,2025,20.6,20.4
Netherlands,2020,22.9,22.1
Netherlands,2015,26.2,23.9
Netherlands,2012,27.5,24.7
Netherlands,2010,29.4,25.9
Netherlands,2005,32.7,28.1
Netherlands,2000,36.7,30.7
New Zealand,2008,,
Niger,2025,31,0.1
Niger,2020,24,0.2
Niger,2015,18.6,0.2
Niger,2012,15.9,0.2
Niger,2010,14.4,0.2
Niger,2009,,
Niger,2006,,
Niger,2005,11.3,0.3
Niger,2001,,
Niger,2000,9,0.3
Nigeria,2025,23.8,0.7
Nigeria,2020,20.2,0.9
Nigeria,2015,17.4,1.1
Nigeria,2012,15.9,1.2
Nigeria,2010,15,1.3
Nigeria,2005,13,1.6
Nigeria,2000,11.3,2
Niue,2025,16.2,9.5
Niue,2020,18.2,10.3
Niue,2015,20.3,11.4
Niue,2012,21.9,12
Niue,2010,23.2,12.5
Niue,2009,,
Niue,2005,26.5,14
Niue,2000,30.6,15.7
Norway,2025,14.4,14.7
Norway,2020,17.9,18.1
Norway,2015,22.4,22.1
Norway,2012,25.5,24.9
Norway,2010,28,27.1
Norway,2005,34.7,33.4
Norway,2000,43.1,41
Oman,2025,30.8,1.3
Oman,2020,25.4,1.1
Oman,2015,21,1
Oman,2012,18.9,1
Oman,2010,17.5,1
Oman,2007,,
Oman,2005,14.8,0.9
Oman,2002,,
Oman,2000,12.5,0.8
Pakistan,2025,46.3,1.6
Pakistan,2020,43.9,2.1
Pakistan,2015,41.9,3
Pakistan,2012,40.6,3.6
Pakistan,2010,40.2,4.2
Pakistan,2005,38.5,5.9
Pakistan,2000,37.4,8.4
Palau,2013,,
Palau,2009,,
Palau,2005,,
Palau,2000,,
Panama,2025,6.1,1.7
Panama,2020,8,2.1
Panama,2015,10.6,2.6
Panama,2012,12.5,2.9
Panama,2010,14.1,3.2
Panama,2008,,
Panama,2005,18.9,4.1
Panama,2002,,
Panama,2000,25.5,5.2
Papua New Guinea,2007,,
Paraguay,2025,21,5.4
Paraguay,2020,24.4,6.5
Paraguay,2015,28.3,7.9
Paraguay,2012,31.3,9
Paraguay,2010,33.1,9.7
Paraguay,2008,,
Paraguay,2005,39,12
Paraguay,2000,46.2,14.9
Peru,2025,,4.3
Peru,2020,,5
Peru,2015,,5.9
Peru,2012,,6.5
Peru,2010,,6.9
Peru,2007,,
Peru,2005,,8.2
Peru,2000,,9.7
Philippines,2025,35.6,6.5
Philippines,2020,39,7.4
Philippines,2015,43,8.5
Philippines,2012,45.8,9.2
Philippines,2011,,
Philippines,2010,47.6,9.7
Philippines,2007,,
Philippines,2005,53.2,11.2
Philippines,2004,,
Philippines,2003,,
Philippines,2000,59.1,12.9
Poland,2025,26,17.8
Poland,2020,28.9,20.6
Poland,2015,32.4,23.7
Poland,2012,34.9,26.1
Poland,2010,36.5,27.7
Poland,2009,,
Poland,2005,41.1,32.2
Poland,2003,,
Poland,2000,46.9,37.9
Portugal,2025,29.3,12.9
Portugal,2020,30.3,13.2
Portugal,2015,31.5,13.7
Portugal,2012,32.4,14
Portugal,2010,32.9,14.2
Portugal,2005,34.5,14.9
Portugal,2000,36.1,15.7
Qatar,2007,,
Qatar,2004,,
Republic of Korea,2025,44,3.6
Republic of Korea,2020,46.9,3.8
Republic of Korea,2015,49.8,4.2
Republic of Korea,2013,,
Republic of Korea,2012,51.7,4.4
Republic of Korea,2010,53.3,4.6
Republic of Korea,2008,,
Republic of Korea,2005,57,5
Republic of Korea,2000,61.5,5.6
Republic of Moldova,2025,49.8,5.4
Republic of Moldova,2020,47.8,5.4
Republic of Moldova,2015,45.7,5.4
Republic of Moldova,2013,,
Republic of Moldova,2012,44.6,5.4
Republic of Moldova,2010,44.1,5.4
Republic of Moldova,2008,,
Republic of Moldova,2005,42.1,5.4
Republic of Moldova,2004,,
Republic of Moldova,2000,40.7,5.5
Romania,2025,29.8,20.1
Romania,2020,33.1,21.3
Romania,2015,36.9,22.7
Romania,2013,,
Romania,2012,39.5,23.4
Romania,2010,41.4,23.9
Romania,2009,,
Romania,2005,46.6,25.6
Romania,2004,,
Romania,2000,52.8,27.4
Russian Federation,2025,54.6,24
Russian Federation,2020,56.8,23.4
Russian Federation,2015,59,22.8
Russian Federation,2012,60.3,22.5
Russian Federation,2010,61.2,22.4
Russian Federation,2005,64,22.1
Russian Federation,2004,,
Russian Federation,2000,67.2,21.8
Rwanda,2025,,5
Rwanda,2020,,5.2
Rwanda,2015,,5.5
Rwanda,2012,,5.7
Rwanda,2010,,5.8
Rwanda,2008,,
Rwanda,2005,,6.3
Rwanda,2000,,6.7
Saint Kitts and Nevis,2010,,
Saint Kitts and Nevis,2002,,
Saint Lucia,2011,,
Saint Lucia,2007,,
Saint Vincent and the Grenadines,2011,,
Saint Vincent and the Grenadines,2007,,
Saint Vincent and the Grenadines,2000,,
Samoa,2025,31.6,15.9
Samoa,2020,35.9,17.3
Samoa,2015,41,18.9
Samoa,2012,44.8,20.1
Samoa,2010,47.4,20.9
Samoa,2007,,
Samoa,2005,54.9,23.3
Samoa,2000,63.4,26
San Marino,2010,,
San Marino,2009,,
Sao Tome and Principe,2010,,
Saudi Arabia,2025,35.5,2.6
Saudi Arabia,2020,31.4,2.7
Saudi Arabia,2015,27.9,2.9
Saudi Arabia,2012,26.3,3
Saudi Arabia,2010,24.9,3
Saudi Arabia,2007,,
Saudi Arabia,2005,22.3,3.3
Saudi Arabia,2000,20.2,3.5
Senegal,2025,28.7,0.5
Senegal,2020,25.8,0.6
Senegal,2015,23.4,0.7
Senegal,2013,,
Senegal,2012,22.1,0.8
Senegal,2010,21.2,0.9
Senegal,2007,,
Senegal,2005,19.2,1.1
Senegal,2002,,
Senegal,2000,17.6,1.4
Serbia,2025,37.9,38.9
Serbia,2020,40.6,39.3
Serbia,2015,43.6,39.7
Serbia,2013,,
Serbia,2012,45.5,39.8
Serbia,2010,46.8,40.2
Serbia,2008,,
Serbia,2005,50.4,40.6
Serbia,2003,,
Serbia,2000,54.6,41.2
Seychelles,2025,40.9,7.6
Seychelles,2020,42.1,8.2
Seychelles,2015,43,8.8
Seychelles,2012,44,9.2
Seychelles,2010,44.8,9.5
Seychelles,2007,,
Seychelles,2005,46.2,10.3
Seychelles,2002,,
Seychelles,2000,48.1,11.2
Sierra Leone,2025,76.2,8.7
Sierra Leone,2020,68.6,10.2
Sierra Leone,2015,60,12
Sierra Leone,2012,55,13.4
Sierra Leone,2010,52.1,14.4
Sierra Leone,2005,45.6,17.2
Sierra Leone,2000,40.1,20.9
Singapore,2025,28.8,4.7
Singapore,2020,28.3,4.9
Singapore,2015,28,5
Singapore,2012,27.7,5.2
Singapore,2010,27.6,5.3
Singapore,2005,27.5,5.5
Singapore,2000,27.4,5.8
Slovakia,2025,37,15.9
Slovakia,2020,38.1,16.8
Slovakia,2015,39.7,17.6
Slovakia,2012,40.7,18.1
Slovakia,2011,,
Slovakia,2010,41.4,18.6
Slovakia,2007,,
Slovakia,2005,43.7,19.9
Slovakia,2003,,
Slovakia,2000,46.2,21.4
Slovenia,2025,18.7,15.9
Slovenia,2020,20.4,17
Slovenia,2015,22.3,18.1
Slovenia,2012,23.6,18.9
Slovenia,2011,,
Slovenia,2010,24.6,19.5
Slovenia,2007,,
Slovenia,2005,27,21
Slovenia,2003,,
Slovenia,2000,29.9,22.6
Solomon Islands,2008,,
South Africa,2025,29.6,4.2
South Africa,2020,30.4,5.2
South Africa,2015,31.4,6.5
South Africa,2012,32.1,7.4
South Africa,2011,,
South Africa,2010,32.5,8
South Africa,2008,,
South Africa,2005,33.9,10
South Africa,2002,,
South Africa,2000,35.3,12.5
South Africa,1999,,
Spain,2025,24.8,24.4
Spain,2020,28,25.7
Spain,2015,31.3,27.1
Spain,2012,33.7,28
Spain,2010,35.3,28.6
Spain,2005,39.8,30.4
Spain,2000,45.2,32.3
Sri Lanka,2025,27.8,0.1
Sri Lanka,2020,28.1,0.2
Sri Lanka,2015,28.4,0.4
Sri Lanka,2012,28.8,0.5
Sri Lanka,2011,,
Sri Lanka,2010,29.3,0.6
Sri Lanka,2007,,
Sri Lanka,2005,30.2,1.1
Sri Lanka,2003,,
Sri Lanka,2000,31.5,1.9
Sudan,2009,,
Sudan,2005,,
Sudan,2001,,
Suriname,2009,,
Suriname,2004,,
Swaziland,2025,21.8,1.8
Swaziland,2020,20.3,2
Swaziland,2015,19,2.2
Swaziland,2012,18.2,2.4
Swaziland,2010,17.8,2.5
Swaziland,2009,,
Swaziland,2005,16.8,2.8
Swaziland,2001,,
Swaziland,2000,15.9,3.2
Sweden,2025,15,14.9
Sweden,2020,17.5,17.6
Sweden,2015,20.4,20.8
Sweden,2012,22.3,23
Sweden,2010,23.8,24.5
Sweden,2005,27.7,29.1
Sweden,2000,32.6,34.6
Switzerland,2025,22.7,16.5
Switzerland,2020,24.7,18.1
Switzerland,2015,26.9,19.7
Switzerland,2012,28.3,20.9
Switzerland,2010,29.2,21.7
Switzerland,2005,31.8,23.8
Switzerland,2000,35,26.1
Syrian Arab Republic,2010,,
Syrian Arab Republic,2007,,
Syrian Arab Republic,2002,,
Tajikistan,2004,,
Thailand,2025,38.3,1.9
Thailand,2020,39.7,2.1
Thailand,2015,41.4,2.3
Thailand,2012,42.3,2.4
Thailand,2010,43.2,2.5
Thailand,2009,,
Thailand,2005,44.9,2.8
Thailand,2000,46.6,3.1
The former Yugoslav republic of Macedonia,2008,,
The former Yugoslav republic of Macedonia,2003,,
Timor-Leste,2013,,
Timor-Leste,2009,,
Timor-Leste,2006,,
Togo,2013,,
Togo,2007,,
Togo,2002,,
Tonga,2025,44,11.9
Tonga,2020,45.6,12.4
Tonga,2015,47.3,13
Tonga,2012,48.4,13.3
Tonga,2010,49.3,13.6
Tonga,2005,51.8,14.3
Tonga,2000,54.4,15.1
Trinidad and Tobago,2011,,
Trinidad and Tobago,2007,,
Trinidad and Tobago,2000,,
Tunisia,2010,,
Tunisia,2007,,
Tunisia,2001,,
Turkey,2025,30.7,9.2
Turkey,2020,34.7,10.6
Turkey,2015,39.5,12.4
Turkey,2012,42.7,13.5
Turkey,2010,45,14.4
Turkey,2009,,
Turkey,2005,51.5,16.7
Turkey,2003,,
Turkey,2000,58.7,19.7
Tuvalu,2006,,
Uganda,2025,11.8,2.1
Uganda,2020,13.8,2.4
Uganda,2015,16.4,2.9
Uganda,2012,18.1,3.2
Uganda,2011,,
Uganda,2010,19.3,3.4
Uganda,2007,,
Uganda,2005,23.1,4
Uganda,2000,27.5,4.8
Ukraine,2025,43.6,13
Ukraine,2020,46.3,13.5
Ukraine,2015,49.4,14
Ukraine,2012,51.4,14.4
Ukraine,2011,,
Ukraine,2010,52.6,14.6
Ukraine,2005,56.4,15.1
Ukraine,2000,60.2,15.9
United Arab Emirates,2005,,
United Kingdom of Great Britain and Northern Ireland,2025,15,13.7
United Kingdom of Great Britain and Northern Ireland,2020,17.3,15.9
United Kingdom of Great Britain and Northern Ireland,2015,19.9,18.4
United Kingdom of Great Britain and Northern Ireland,2012,21.8,20.1
United Kingdom of Great Britain and Northern Ireland,2010,23,21.4
United Kingdom of Great Britain and Northern Ireland,2005,26.8,24.7
United Kingdom of Great Britain and Northern Ireland,2000,31.3,28.9
United Republic of Tanzania,2025,23.2,3.2
United Republic of Tanzania,2020,25.1,3.5
United Republic of Tanzania,2015,27.5,3.8
United Republic of Tanzania,2012,29.2,4
United Republic of Tanzania,2010,30.3,4.1
United Republic of Tanzania,2005,33.8,4.5
United Republic of Tanzania,2000,37.6,4.9
United States of America,2025,15.4,11.4
United States of America,2020,17.4,13
United States of America,2015,19.5,15
United States of America,2012,21,16.3
United States of America,2011,,
United States of America,2010,22,17.3
United States of America,2009,,
United States of America,2005,24.7,19.9
United States of America,2004,,
United States of America,2002,,
United States of America,2000,27.7,23
Uruguay,2025,18.3,12.8
Uruguay,2020,22,15.7
Uruguay,2015,26.7,19.4
Uruguay,2012,30,22
Uruguay,2010,32.3,24
Uruguay,2007,,
Uruguay,2005,39.6,29.6
Uruguay,2000,48.1,36.7
Uzbekistan,2025,22.7,1.2
Uzbekistan,2020,23.8,1.2
Uzbekistan,2015,24.9,1.3
Uzbekistan,2012,25.9,1.3
Uzbekistan,2010,26.5,1.4
Uzbekistan,2005,28.1,1.5
Uzbekistan,2000,30.1,1.5
Vanuatu,2007,,
Venezuela (Bolivarian Republic of),2010,,
Venezuela (Bolivarian Republic of),1999,,
Viet Nam,2025,45.6,1
Viet Nam,2020,46.2,1.1
Viet Nam,2015,47.1,1.3
Viet Nam,2012,47.6,1.4
Viet Nam,2010,48.3,1.4
Viet Nam,2007,,
Viet Nam,2005,49.5,1.6
Viet Nam,2000,51.1,1.9
Yemen,2014,,
Yemen,2008,,
Yemen,2003,,
Zambia,2025,24.8,3.9
Zambia,2020,25.5,4.2
Zambia,2015,26.5,4.6
Zambia,2012,27.3,4.8
Zambia,2011,,
Zambia,2010,27.8,5
Zambia,2005,29.3,5.5
Zambia,2000,31,6.1
Zimbabwe,2025,30.3,1.7
Zimbabwe,2020,30.6,1.9
Zimbabwe,2015,31.2,2.1
Zimbabwe,2012,31.5,2.3
Zimbabwe,2010,31.8,2.4
Zimbabwe,2005,32.5,2.7
Zimbabwe,2000,33.5,3.1
